[
    {
      "id": "travel1",
      "category": "traveling",
      "word": "yalae",
      "meaning": "เดิน, เที่ยว, ถนน",
      "audioName": "m_yalae.wav",
      "imageName": "yalae.jpg",
      "audioPath": "traveling/yalae/male",
      "passThreshold": 57
    },
    {
      "id": "travel2",
      "category": "traveling",
      "word": "beto",
      "meaning": "ตรง",
      "audioName": "m_beto.wav",
      "imageName": "beto.jpg",
      "audioPath": "traveling/beto/male",
      "passThreshold": 64
    },
    {
      "id": "travel3",
      "category": "traveling",
      "word": "laekoak",
      "meaning": "เลี้ยว",
      "audioName": "m_laekoak.wav",
      "imageName": "laekoak.jpg",
      "audioPath": "traveling/laekoak/male",
      "passThreshold": 46
    },
    {
      "id": "travel4",
      "category": "traveling",
      "word": "kiri",
      "meaning": "ซ้าย",
      "audioName": "m_kiri.wav",
      "imageName": "kiri.jpg",
      "audioPath": "traveling/kiri/male",
      "passThreshold": 63
    },
    {
      "id": "travel5",
      "category": "traveling",
      "word": "kanae",
      "meaning": "ขวา",
      "audioName": "m_kanae.wav",
      "imageName": "kanae.jpg",
      "audioPath": "traveling/kanae/male",
      "passThreshold": 87
    },
    {
      "id": "travel6",
      "category": "traveling",
      "word": "jabae",
      "meaning": "ทางแยก",
      "audioName": "m_jabae.wav",
      "imageName": "jabae.jpg",
      "audioPath": "traveling/jabae/male",
      "passThreshold": 50
    },
    {
      "id": "travel7",
      "category": "traveling",
      "word": "jabae-tiga",
      "meaning": "สามแยก",
      "audioName": "m_jabae-tiga.wav",
      "imageName": "jabae-tiga.jpg",
      "audioPath": "traveling/jabae-tiga/male",
      "passThreshold": 76
    },
    {
      "id": "travel8",
      "category": "traveling",
      "word": "jabae-paa",
      "meaning": "สี่แยก",
      "audioName": "m_jabae-paa.wav",
      "imageName": "jabae-paa.jpg",
      "audioPath": "traveling/jabae-paa/male",
      "passThreshold": 85
    },
    {
      "id": "travel9",
      "category": "traveling",
      "word": "di-sining",
      "meaning": "ที่นี่",
      "audioName": "m_di-sining.wav",
      "imageName": "di-sining.jpg",
      "audioPath": "traveling/di-sining/male",
      "passThreshold": 55
    },
    {
      "id": "travel10",
      "category": "traveling",
      "word": "di-tepi",
      "meaning": "ข้างๆ",
      "audioName": "m_di-tepi.wav",
      "imageName": "di-tepi.jpg",
      "audioPath": "traveling/di-tepi/male",
      "passThreshold": 42
    },
    {
      "id": "travel11",
      "category": "traveling",
      "word": "dehnung",
      "meaning": "ที่โน้น",
      "audioName": "m_dehnung.wav",
      "imageName": "dehnung.jpg",
      "audioPath": "traveling/dehnung/male",
      "passThreshold": 60
    },
    {
      "id": "travel12",
      "category": "traveling",
      "word": "di-situ",
      "meaning": "ที่นั่น",
      "audioName": "m_di-situ.wav",
      "imageName": "di-situ.jpg",
      "audioPath": "traveling/di-situ/male",
      "passThreshold": 44
    },
    {
      "id": "travel13",
      "category": "traveling",
      "word": "dapae",
      "meaning": "ข้างหน้า",
      "audioName": "m_dapae.wav",
      "imageName": "dapae.jpg",
      "audioPath": "traveling/dapae/male",
      "passThreshold": 88
    },
    {
      "id": "travel14",
      "category": "traveling",
      "word": "blakae",
      "meaning": "ข้างหลัง, ด้านหลัง",
      "audioName": "m_blakae.wav",
      "imageName": "blakae.jpg",
      "audioPath": "traveling/blakae/male",
      "passThreshold": 63
    },
    {
      "id": "travel15",
      "category": "traveling",
      "word": "jauh",
      "meaning": "ไกล",
      "audioName": "m_jauh.wav",
      "imageName": "jauh.jpg",
      "audioPath": "traveling/jauh/male",
      "passThreshold": 68
    },
    {
      "id": "travel16",
      "category": "traveling",
      "word": "dekaa",
      "meaning": "ใกล้",
      "audioName": "m_dekaa.wav",
      "imageName": "dekaa.jpg",
      "audioPath": "traveling/dekaa/male",
      "passThreshold": 68
    },
    {
      "id": "travel17",
      "category": "traveling",
      "word": "naik",
      "meaning": "ขึ้น",
      "audioName": "m_naik.wav",
      "imageName": "naik.jpg",
      "audioPath": "traveling/naik/male",
      "passThreshold": 60
    },
    {
      "id": "travel18",
      "category": "traveling",
      "word": "turong",
      "meaning": "ลง",
      "audioName": "m_turong.wav",
      "imageName": "turong.jpg",
      "audioPath": "traveling/turong/male",
      "passThreshold": 49
    },
    {
      "id": "travel19",
      "category": "traveling",
      "word": "naik-mutu",
      "meaning": "ขึ้นรถมอเตอร์ไซค์",
      "audioName": "m_naik-mutu.wav",
      "imageName": "naik-mutu.jpg",
      "audioPath": "traveling/naik-mutu/male",
      "passThreshold": 62
    },
    {
      "id": "travel20",
      "category": "traveling",
      "word": "nokgi",
      "meaning": "จะไป, อยากไป",
      "audioName": "m_nokgi.wav",
      "imageName": "nokgi.jpg",
      "audioPath": "traveling/nokgi/male",
      "passThreshold": 50
    },
    {
      "id": "travel21",
      "category": "traveling",
      "word": "nokgimana",
      "meaning": "จะไปไหหน",
      "audioName": "m_nokgimana.wav",
      "imageName": "nokgimana.jpg",
      "audioPath": "traveling/nokgimana/male",
      "passThreshold": 80
    },
    {
      "id": "travel22",
      "category": "traveling",
      "word": "gikokmana",
      "meaning": "ไปทางไหน",
      "audioName": "m_gikokmana.wav",
      "imageName": "gikokmana.jpg",
      "audioPath": "traveling/gikokmana/male",
      "passThreshold": 82
    },
    {
      "id": "travel23",
      "category": "traveling",
      "word": "bae2-pata-gikokmana",
      "meaning": "พี่ๆ ทะเลไปทางไหน",
      "audioName": "m_bae2-pata-gikokmana.wav",
      "imageName": "bae2-pata-gikokmana.jpg",
      "audioPath": "traveling/bae2-pata-gikokmana/male",
      "passThreshold": 75
    },
    {
      "id": "travel24",
      "category": "traveling",
      "word": "saya-nokgi-pajo",
      "meaning": "ฉัน, ผมจะไปน้ำตก",
      "audioName": "m_saya-nokgi-pajo.wav",
      "imageName": "saya-nokgi-pajo.jpg",
      "audioPath": "traveling/saya-nokgi-pajo/male",
      "passThreshold": 46
    }
   ]